…
    ## `summarise()` ungrouping output (override with `.groups` argument)

    ## # A tibble: 23 x 3
    ##    industry                         avg_rating count
    ##    <chr>                                 <dbl> <int>
    ##  1 Agriculture & Forestry                 5        1
    ##  2 Real Estate                            4.2      4
    ##  3 Education                              4.06    26
    ##  4 Arts, Entertainment & Recreation       3.95     2
    ##  5 Information Technology                 3.94   340
    ##  6 Consumer Services                      3.94     5
    ##  7 Telecommunications                     3.84     5
    ##  8 Aerospace & Defense                    3.84    44
    ##  9 Business Services                      3.81   165
    ## 10 Government                             3.80    41
    ## # ... with 13 more rows
